<svg xmlns="http://www.w3.org/2000/svg" width="10" height="9.999" viewBox="0 0 10 9.999">
  <path id="Add02" d="M5996,2462v-4h-4v-2h4v-4h2v4h4v2h-4v4Z" transform="translate(-5992 -2452)" fill="#7b7b7b"/>
</svg>
