<svg xmlns="http://www.w3.org/2000/svg" width="14" height="14" viewBox="0 0 14 14">
  <g id="CheckBox-02" transform="translate(-54 -126)">
    <rect id="Rectangle_993" data-name="Rectangle 993" width="12" height="12" transform="translate(55 127)" fill="#fff"/>
    <path id="Checkbox-14-02" d="M0-2H14V-16H0ZM0-16m1.313,1.313H12.688v1.938L7.073-7.135l-3.4-3.4-.927.927,3.4,3.4.928.928L8-6.207l4.686-4.686v7.581H1.313Z" transform="translate(54 142)" fill="#434343"/>
  </g>
</svg>
