<svg xmlns="http://www.w3.org/2000/svg" width="11.313" height="11.313" viewBox="0 0 11.313 11.313">
  <path id="Closed-Green" d="M5997.657,831.071l-4.243,4.243L5992,833.9l4.242-4.242L5992,825.414l1.413-1.413,4.243,4.242L6001.9,824l1.415,1.413-4.243,4.243,4.243,4.242-1.415,1.415Z" transform="translate(-5992.001 -824.001)" fill="#8bbb04"/>
</svg>
